ST, B1_, B2_, B3_, B4_, B5_, B6_, B7_
1, 1, 1, 1, 1, 1, 1, 1
2, 1, 1, 2, 1, 1, 1, 1
3, 1, 2, 2, 1, 1, 1, 1
4, 1, 2, 2, 2, 1, 1, 1
5, 1, 2, 2, 3, 1, 1, 1
6, 1, 3, 2, 3, 1, 1, 1
7, 2, 3, 2, 3, 1, 1, 1
8, 2, 3, 3, 3, 1, 1, 1
9, 3, 3, 3, 3, 1, 1, 1
10, 3, 3, 3, 4, 1, 1, 1
11, 4, 3, 3, 4, 1, 1, 1
12, 5, 3, 3, 4, 1, 1, 1
13, 5, 3, 3, 4, 2, 1, 1
14, 6, 3, 3, 4, 2, 1, 1
15, 6, 3, 3, 4, 3, 1, 1
16, 6, 3, 4, 4, 3, 1, 1
17, 6, 3, 4, 4, 3, 2, 1
18, 7, 3, 4, 4, 3, 2, 1
19, 7, 3, 4, 4, 4, 2, 1
20, 7, 4, 4, 4, 4, 2, 1
21, 8, 4, 4, 4, 4, 2, 1
22, 9, 4, 4, 4, 4, 2, 1
23, 9, 4, 4, 4, 4, 3, 1
24, 9, 4, 4, 4, 4, 3, 2
25, 10, 4, 4, 4, 4, 3, 2
26, 10, 4, 4, 4, 4, 4, 2
27, 10, 4, 4, 4, 5, 4, 2
28, 10, 5, 4, 4, 5, 4, 2
29, 11, 5, 4, 4, 5, 4, 2
30, 11, 5, 4, 5, 5, 4, 2
31, 12, 5, 4, 5, 5, 4, 2
32, 12, 5, 4, 5, 5, 4, 3
33, 12, 5, 4, 5, 6, 4, 3
34, 12, 6, 4, 5, 6, 4, 3
35, 12, 6, 4, 5, 6, 4, 4
36, 12, 6, 4, 5, 6, 5, 4
37, 12, 6, 5, 5, 6, 5, 4
38, 12, 6, 6, 5, 6, 5, 4
39, 13, 6, 6, 5, 6, 5, 4
40, 13, 6, 6, 6, 6, 5, 4
41, 13, 6, 6, 7, 6, 5, 4
42, 13, 6, 6, 7, 6, 5, 5
43, 13, 6, 7, 7, 6, 5, 5
44, 13, 7, 7, 7, 6, 5, 5
45, 13, 7, 7, 8, 6, 5, 5
46, 13, 7, 7, 9, 6, 5, 5
47, 13, 7, 7, 9, 6, 6, 5
48, 13, 8, 7, 9, 6, 6, 5
49, 14, 8, 7, 9, 6, 6, 5
50, 14, 8, 7, 9, 7, 6, 5
